4,8.000000079200056
5,8.333333334158349
6,8.571428571437101
7,8.750000000000108
8,8.888888888889253
9,9.000000000000034
10,9.09090909090907
11,9.166666666666677
12,9.23076923076943
13,9.285714285714297
14,9.33333333333402
15,9.375
16,9.411764705884403
17,9.444444444444802
18,9.473684210533822
19,9.50000000000509
20,9.5238095238123
21,9.545454545456845
22,9.565217391305021
23,9.58333333333529
24,9.600000000000625
25,9.615384615387892
26,9.629629629630756
27,9.642857142857544
28,9.655172413796528
29,9.66666666666797
30,9.677419354839214
31,9.687500000000206
32,9.696969696972326
33,9.7058823529423
34,9.714285714286206
35,9.722222222222447
36,9.729729729733112
37,9.736842105264747
38,9.743589743590505
39,9.75000000000038
40,9.756097560975794
41,9.761904761907347
42,9.767441860329644
43,9.77272727259361
44,9.777777777644989
45,9.782608695518439
46,9.787234042419819
47,9.791666666672546
48,9.795918367354734
49,9.800000000004438
50,9.803921568629864
51,9.807692307693536
52,9.81132075472292
53,9.814814814818256
54,9.818181818183831
55,9.821428571429683
56,9.824561403509167
57,9.827586206902046
58,9.830508474579549
59,9.833333333335238
60,9.836065573771348
61,9.838709677419775
62,9.84126984126999
63,9.843750000005457
64,9.846153846157161
65,9.848484848486814
66,9.850746268657831
67,9.852941176471143
68,9.855072463768227
69,9.857142857142762
70,9.859154929577166
71,9.861111111110672
72,9.863013698629713
73,9.864864864866298
74,9.866666666667454
75,9.868421052631994
76,9.870129870130036
77,9.871794871794846
78,9.87341772151884
79,9.875000000005436
80,9.87654320989593
81,9.878048780513195
82,9.879518072312084
83,9.88095238097323
84,9.88235294119557
85,9.883720930250158
86,9.885057471280668
87,9.886363636385298
88,9.887640449491474
89,9.888888888936622
90,9.890109890161227
91,9.891304347871516
92,9.892473118320018
93,9.893617021312815
94,9.894736842146223
95,9.895833333380173
96,9.896907216535489
97,9.897959183709087
98,9.898989899020957
99,9.900000000034325
100,9.90099009903984
101,9.901960784348693
102,9.902912621396233
103,9.903846153878744
104,9.904761904790876
105,9.905660377384432
106,9.906542056098175
107,9.907407407428703
108,9.908256880753465
